…
### Using purrr

```{r, message=FALSE}
library(purrr)
library(CDECRetrieve)

stations_of_interest <- c("kwk", "ccr", "bsf")

# 'map' through the stations of interest and apply them to the function
map(stations_of_interest, function(s) {
  cdec_query(station = s, sensor_num = "25", dur_code = "h")
})
#> [[1]]
#> # A tibble: 73 x 5
#>    agency_cd location_id datetime            parameter_cd parameter_value
#>    <chr>     <chr>       <dttm>              <chr>                  <dbl>
#>  1 CDEC      KWK         2020-12-07 23:00:00 25                      52.9
#>  2 CDEC      KWK         2020-12-08 00:00:00 25                      52.9
#>  3 CDEC      KWK         2020-12-08 01:00:00 25                      52.9
#>  4 CDEC      KWK         2020-12-08 02:00:00 25                      52.8
#>  5 CDEC      KWK         2020-12-08 03:00:00 25                      52.8
#>  6 CDEC      KWK         2020-12-08 04:00:00 25                      52.8
#>  7 CDEC      KWK         2020-12-08 05:00:00 25                      52.8
#>  8 CDEC      KWK         2020-12-08 06:00:00 25                      52.8
#>  9 CDEC      KWK         2020-12-08 07:00:00 25                      52.8
#> 10 CDEC      KWK         2020-12-08 08:00:00 25                      52.8
#> # ... with 63 more rows
#> 
#> [[2]]
#> # A tibble: 73 x 5
#>    agency_cd location_id datetime            parameter_cd parameter_value
#>    <chr>     <chr>       <dttm>              <chr>                  <dbl>
#>  1 CDEC      CCR         2020-12-07 23:00:00 25                      52.4
#>  2 CDEC      CCR         2020-12-08 00:00:00 25                      52.2
#>  3 CDEC      CCR         2020-12-08 01:00:00 25                      52.1
#>  4 CDEC      CCR         2020-12-08 02:00:00 25                      52  
#>  5 CDEC      CCR         2020-12-08 03:00:00 25                      51.9
#>  6 CDEC      CCR         2020-12-08 04:00:00 25                      51.9
#>  7 CDEC      CCR         2020-12-08 05:00:00 25                      51.8
#>  8 CDEC      CCR         2020-12-08 06:00:00 25                      51.7
#>  9 CDEC      CCR         2020-12-08 07:00:00 25                      51.6
#> 10 CDEC      CCR         2020-12-08 08:00:00 25                      51.6
#> # ... with 63 more rows
#> 
#> [[3]]
#> # A tibble: 73 x 5
#>    agency_cd location_id datetime            parameter_cd parameter_value
#>    <chr>     <chr>       <dttm>              <chr>                  <dbl>
#>  1 CDEC      BSF         2020-12-07 23:00:00 25                      52.4
#>  2 CDEC      BSF         2020-12-08 00:00:00 25                      52.2
#>  3 CDEC      BSF         2020-12-08 01:00:00 25                      52  
#>  4 CDEC      BSF         2020-12-08 02:00:00 25                      51.9
#>  5 CDEC      BSF         2020-12-08 03:00:00 25                      51.7
#>  6 CDEC      BSF         2020-12-08 04:00:00 25                      51.5
#>  7 CDEC      BSF         2020-12-08 05:00:00 25                      51.2
#>  8 CDEC      BSF         2020-12-08 06:00:00 25                      50.9
#>  9 CDEC      BSF         2020-12-08 07:00:00 25                      50.7
#> 10 CDEC      BSF         2020-12-08 08:00:00 25                      50.5
#> # ... with 63 more rows
```
…
Great! 

We can still improve this by using some shortcut features in purrr. Namely we can 
shorten the `function` part of `map_df` using the `~` shortcut.

```{r, message=FALSE}
# here ~ tells map that this a function, and to interpret '.' as a value
# being passed from the `stations_of_interest`
map_df(stations_of_interest, ~cdec_query(., "25", "h"))
#> # A tibble: 219 x 5
#>    agency_cd location_id datetime            parameter_cd parameter_value
#>    <chr>     <chr>       <dttm>              <chr>                  <dbl>
#>  1 CDEC      KWK         2020-12-07 23:00:00 25                      52.9
#>  2 CDEC      KWK         2020-12-08 00:00:00 25                      52.9
#>  3 CDEC      KWK         2020-12-08 01:00:00 25                      52.9
#>  4 CDEC      KWK         2020-12-08 02:00:00 25                      52.8
#>  5 CDEC      KWK         2020-12-08 03:00:00 25                      52.8
#>  6 CDEC      KWK         2020-12-08 04:00:00 25                      52.8
#>  7 CDEC      KWK         2020-12-08 05:00:00 25                      52.8
#>  8 CDEC      KWK         2020-12-08 06:00:00 25                      52.8
#>  9 CDEC      KWK         2020-12-08 07:00:00 25                      52.8
#> 10 CDEC      KWK         2020-12-08 08:00:00 25                      52.8
#> # ... with 209 more rows
```
…
```{r}
stations_of_interest <- c("ccr", "kwk")
sensors_of_interest <- c("25", "1")
dur_code = "h"
```

Now we can use yet another variant of `map`, `pmap_df` to pass in an 
arbitrary number of arguments, 

```{r, message=FALSE}
pmap_df(list(stations_of_interest, 
             sensors_of_interest, 
             dur_code), ~cdec_query(station = ..1, sensor_num = ..2, dur_code = ..3))
#> # A tibble: 146 x 5
#>    agency_cd location_id datetime            parameter_cd parameter_value
#>    <chr>     <chr>       <dttm>              <chr>                  <dbl>
#>  1 CDEC      CCR         2020-12-07 23:00:00 25                      52.4
#>  2 CDEC      CCR         2020-12-08 00:00:00 25                      52.2
#>  3 CDEC      CCR         2020-12-08 01:00:00 25                      52.1
#>  4 CDEC      CCR         2020-12-08 02:00:00 25                      52  
#>  5 CDEC      CCR         2020-12-08 03:00:00 25                      51.9
#>  6 CDEC      CCR         2020-12-08 04:00:00 25                      51.9
#>  7 CDEC      CCR         2020-12-08 05:00:00 25                      51.8
#>  8 CDEC      CCR         2020-12-08 06:00:00 25                      51.7
#>  9 CDEC      CCR         2020-12-08 07:00:00 25                      51.6
#> 10 CDEC      CCR         2020-12-08 08:00:00 25                      51.6
#> # ... with 136 more rows
```
…
#### Making a custom function 

In the above we don't really change `dur_code` but we still need to supply it into 
the function. We can save some time by creating a function out of `cdec_query()`, using
`purrr::partial()`, we can create a function that takes two arguments and has "dur_code"
fixed to "h". This allow us to use `map2_df` instead of `pmap_df`.

```{r, message=FALSE, warning=FALSE}
cdec_query_hourly <- purrr::partial(cdec_query, dur_code="h")

# we only have to supply two arguments
map2_df(stations_of_interest, sensors_of_interest, 
        ~cdec_query_hourly(station=.x, sensor_num=.y))
#> # A tibble: 146 x 5
#>    agency_cd location_id datetime            parameter_cd parameter_value
#>    <chr>     <chr>       <dttm>              <chr>                  <dbl>
#>  1 CDEC      CCR         2020-12-07 23:00:00 25                      52.4
#>  2 CDEC      CCR         2020-12-08 00:00:00 25                      52.2
#>  3 CDEC      CCR         2020-12-08 01:00:00 25                      52.1
#>  4 CDEC      CCR         2020-12-08 02:00:00 25                      52  
#>  5 CDEC      CCR         2020-12-08 03:00:00 25                      51.9
#>  6 CDEC      CCR         2020-12-08 04:00:00 25                      51.9
#>  7 CDEC      CCR         2020-12-08 05:00:00 25                      51.8
#>  8 CDEC      CCR         2020-12-08 06:00:00 25                      51.7
#>  9 CDEC      CCR         2020-12-08 07:00:00 25                      51.6
#> 10 CDEC      CCR         2020-12-08 08:00:00 25                      51.6
#> # ... with 136 more rows
```
…
