Package to retrieve historical and near realtime data from CDEC • CDECRetrieve
…
devtools::install_github("flowwest/CDECRetrieve", username="")

Usage

Basic Usage

CDECRetrieve exposes several useful functions to query services from CDEC. The main function in the package is retrieve_station_data,

# download data from kwk, sensor 20, duration is event type
kwk_flow <- retrieve_station_data("KWK", "20", "E", "2000-01-01", "2002-01-01")

The returned data complies with both tidy data and third normal form, to facilitate both statistical analysia and visualization.

# A tibble: 17,544 × 5
   agency_cd            datetime location_id parameter_cd parameter_value
       <chr>              <dttm>       <chr>        <chr>           <chr>
1       CDEC 2000-01-01 00:00:00         KWK          20H            5401
2       CDEC 2000-01-01 01:00:00         KWK          20H            4937
3       CDEC 2000-01-01 02:00:00         KWK          20H            5234
4       CDEC 2000-01-01 03:00:00         KWK          20H            5234
5       CDEC 2000-01-01 04:00:00         KWK          20H            5273
6       CDEC 2000-01-01 05:00:00         KWK          20H            5282
7       CDEC 2000-01-01 06:00:00         KWK          20H            5090
8       CDEC 2000-01-01 07:00:00         KWK          20H            5023
9       CDEC 2000-01-01 08:00:00         KWK          20H            5014
10      CDEC 2000-01-01 09:00:00         KWK          20H            5023
# ... with 17,534 more rows
…
# use map to retrieve all possible data
resp <- map(station_list, safely(function(x) {
  retrieve_station_data(x, "25", "H", "2015-01-01", "2017-02-28")
}))

# transpose and extract succesfull returns 
resp <- transpose(resp)$results %>% bind_rows()

The query returns

resp

# A tibble: 56,808 × 5
   agency_cd            datetime location_id parameter_cd parameter_value
       <chr>              <dttm>       <chr>        <chr>           <dbl>
1       CDEC 2015-01-01 00:00:00         BND          25H            45.3
2       CDEC 2015-01-01 01:00:00         BND          25H            45.4
3       CDEC 2015-01-01 02:00:00         BND          25H            45.4
4       CDEC 2015-01-01 03:00:00         BND          25H            45.3
5       CDEC 2015-01-01 04:00:00         BND          25H            45.3
6       CDEC 2015-01-01 05:00:00         BND          25H            45.2
7       CDEC 2015-01-01 06:00:00         BND          25H            45.1
8       CDEC 2015-01-01 07:00:00         BND          25H            45.0
9       CDEC 2015-01-01 08:00:00         BND          25H            45.0
10      CDEC 2015-01-01 09:00:00         BND          25H            45.1
# ... with 56,798 more rows
…
