Advanced Queries with purrr • CDECRetrieve
…
but we can implement this same query using higher level functions.

Using purrr

library(purrr)
library(CDECRetrieve)

stations_of_interest <- c("kwk", "ccr", "bsf")

# 'map' through the stations of interest and apply them to the function
map(stations_of_interest, function(s) {
  cdec_query(station = s, sensor_num = "25", dur_code = "h")
})
#> [[1]]
#> # A tibble: 73 x 5
#>    agency_cd location_id datetime            parameter_cd parameter_value
#>    <chr>     <chr>       <dttm>              <chr>                  <dbl>
#>  1 CDEC      KWK         2019-03-19 00:00:00 25                      48.6
#>  2 CDEC      KWK         2019-03-19 01:00:00 25                      48.5
#>  3 CDEC      KWK         2019-03-19 02:00:00 25                      48.5
#>  4 CDEC      KWK         2019-03-19 03:00:00 25                      48.3
#>  5 CDEC      KWK         2019-03-19 04:00:00 25                      48.2
#>  6 CDEC      KWK         2019-03-19 05:00:00 25                      48.1
#>  7 CDEC      KWK         2019-03-19 06:00:00 25                      48  
#>  8 CDEC      KWK         2019-03-19 07:00:00 25                      47.9
#>  9 CDEC      KWK         2019-03-19 08:00:00 25                      47.8
#> 10 CDEC      KWK         2019-03-19 09:00:00 25                      47.8
#> # … with 63 more rows
#> 
#> [[2]]
#> # A tibble: 73 x 5
#>    agency_cd location_id datetime            parameter_cd parameter_value
#>    <chr>     <chr>       <dttm>              <chr>                  <dbl>
#>  1 CDEC      CCR         2019-03-19 00:00:00 25                      48.8
#>  2 CDEC      CCR         2019-03-19 01:00:00 25                      48.8
#>  3 CDEC      CCR         2019-03-19 02:00:00 25                      48.8
#>  4 CDEC      CCR         2019-03-19 03:00:00 25                      48.8
#>  5 CDEC      CCR         2019-03-19 04:00:00 25                      48.8
#>  6 CDEC      CCR         2019-03-19 05:00:00 25                      48.7
#>  7 CDEC      CCR         2019-03-19 06:00:00 25                      48.6
#>  8 CDEC      CCR         2019-03-19 07:00:00 25                      48.5
#>  9 CDEC      CCR         2019-03-19 08:00:00 25                      48.4
#> 10 CDEC      CCR         2019-03-19 09:00:00 25                      48.4
#> # … with 63 more rows
#> 
#> [[3]]
#> # A tibble: 73 x 5
#>    agency_cd location_id datetime            parameter_cd parameter_value
#>    <chr>     <chr>       <dttm>              <chr>                  <dbl>
#>  1 CDEC      BSF         2019-03-19 00:00:00 25                      49.4
#>  2 CDEC      BSF         2019-03-19 01:00:00 25                      49.3
#>  3 CDEC      BSF         2019-03-19 02:00:00 25                      49.3
#>  4 CDEC      BSF         2019-03-19 03:00:00 25                      49.2
#>  5 CDEC      BSF         2019-03-19 04:00:00 25                      49.2
#>  6 CDEC      BSF         2019-03-19 05:00:00 25                      49.2
#>  7 CDEC      BSF         2019-03-19 06:00:00 25                      49.2
#>  8 CDEC      BSF         2019-03-19 07:00:00 25                      49.1
#>  9 CDEC      BSF         2019-03-19 08:00:00 25                      49.1
#> 10 CDEC      BSF         2019-03-19 09:00:00 25                      49.1
#> # … with 63 more rows
…
Great!

We can still improve this by using some shortcut features in purrr. Namely we can shorten the function part of map_df using the ~ shortcut.

# here ~ tells map that this a function, and to interpret '.' as a value
# being passed from the `stations_of_interest`
map_df(stations_of_interest, ~cdec_query(., "25", "h"))
#> # A tibble: 219 x 5
#>    agency_cd location_id datetime            parameter_cd parameter_value
#>    <chr>     <chr>       <dttm>              <chr>                  <dbl>
#>  1 CDEC      KWK         2019-03-19 00:00:00 25                      48.6
#>  2 CDEC      KWK         2019-03-19 01:00:00 25                      48.5
#>  3 CDEC      KWK         2019-03-19 02:00:00 25                      48.5
#>  4 CDEC      KWK         2019-03-19 03:00:00 25                      48.3
#>  5 CDEC      KWK         2019-03-19 04:00:00 25                      48.2
#>  6 CDEC      KWK         2019-03-19 05:00:00 25                      48.1
#>  7 CDEC      KWK         2019-03-19 06:00:00 25                      48  
#>  8 CDEC      KWK         2019-03-19 07:00:00 25                      47.9
#>  9 CDEC      KWK         2019-03-19 08:00:00 25                      47.8
#> 10 CDEC      KWK         2019-03-19 09:00:00 25                      47.8
#> # … with 209 more rows
…
The above section gave us the basic recipe for playing with multiple stations (and multiple of any other arguments), in this section we expand this to tackle multiple combinations of each. There are many ways to accomplish this, but I outline a recipe that has worked well for me.

First lets gather all the pieces we want to have changing,

stations_of_interest <- c("ccr", "kwk")
sensors_of_interest <- c("25", "1")
dur_code = "h"

Now we can use yet another variant of map, pmap_df to pass in an arbitrary number of arguments,

pmap_df(list(stations_of_interest, 
             sensors_of_interest, 
             dur_code), ~cdec_query(station = ..1, sensor_num = ..2, dur_code = ..3))
#> # A tibble: 146 x 5
#>    agency_cd location_id datetime            parameter_cd parameter_value
#>    <chr>     <chr>       <dttm>              <chr>                  <dbl>
#>  1 CDEC      CCR         2019-03-19 00:00:00 25                      48.8
#>  2 CDEC      CCR         2019-03-19 01:00:00 25                      48.8
#>  3 CDEC      CCR         2019-03-19 02:00:00 25                      48.8
#>  4 CDEC      CCR         2019-03-19 03:00:00 25                      48.8
#>  5 CDEC      CCR         2019-03-19 04:00:00 25                      48.8
#>  6 CDEC      CCR         2019-03-19 05:00:00 25                      48.7
#>  7 CDEC      CCR         2019-03-19 06:00:00 25                      48.6
#>  8 CDEC      CCR         2019-03-19 07:00:00 25                      48.5
#>  9 CDEC      CCR         2019-03-19 08:00:00 25                      48.4
#> 10 CDEC      CCR         2019-03-19 09:00:00 25                      48.4
#> # … with 136 more rows

Here we use ..1, ..2, ..3 to refer to the first, second and third elements of the list, we can grow this any number of arguments.

Making a custom function

In the above we don’t really change dur_code but we still need to supply it into the function. We can save some time by creating a function out of cdec_query(), using purrr::partial(), we can create a function that takes two arguments and has “dur_code” fixed to “h”. This allow us to use map2_df instead of pmap_df.

cdec_query_hourly <- purrr::partial(cdec_query, dur_code="h")

# we only have to supply two arguments
map2_df(stations_of_interest, sensors_of_interest, 
        ~cdec_query_hourly(station=.x, sensor_num=.y))
#> # A tibble: 146 x 5
#>    agency_cd location_id datetime            parameter_cd parameter_value
#>    <chr>     <chr>       <dttm>              <chr>                  <dbl>
#>  1 CDEC      CCR         2019-03-19 00:00:00 25                      48.8
#>  2 CDEC      CCR         2019-03-19 01:00:00 25                      48.8
#>  3 CDEC      CCR         2019-03-19 02:00:00 25                      48.8
#>  4 CDEC      CCR         2019-03-19 03:00:00 25                      48.8
#>  5 CDEC      CCR         2019-03-19 04:00:00 25                      48.8
#>  6 CDEC      CCR         2019-03-19 05:00:00 25                      48.7
#>  7 CDEC      CCR         2019-03-19 06:00:00 25                      48.6
#>  8 CDEC      CCR         2019-03-19 07:00:00 25                      48.5
#>  9 CDEC      CCR         2019-03-19 08:00:00 25                      48.4
#> 10 CDEC      CCR         2019-03-19 09:00:00 25                      48.4
#> # … with 136 more rows
…
